<?xml version="1.0" encoding="utf-8"?>
<!-- Generator: Adobe Illustrator 22.0.1, SVG Export Plug-In . SVG Version: 6.00 Build 0)  -->
<svg version="1.1" id="Layer_1" xmlns="http://www.w3.org/2000/svg" xmlns:xlink="http://www.w3.org/1999/xlink" x="0px" y="0px"
	 viewBox="0 0 156 139" style="enable-background:new 0 0 156 139;" xml:space="preserve">
<style type="text/css">
	.st0{fill:#B19B59;}
</style>
<g>
	<path class="st0" d="M113.4,72.1c0.1,0.2,0.1,0.3,0.1,0.3S113.2,71.4,113.4,72.1z"/>
	<path class="st0" d="M115.6,71.5l-0.1-0.3c-0.3-0.7-1.1-2.4-1.6-3.8c-0.4-1.3-0.7-9.9-0.9-14.1c-0.1-1.5-0.1-2.9-0.2-3.9
		c-0.1-2.3-0.4-5.3-0.9-6.5l-0.6-1.3l-6.5-0.2l1.4,3.2c0.1,0.2,0.5,1.7,0.7,5.2c0.2,3.1,0.4,8.6,0.5,11.8l-1.3,0.1
		c-12,1.4-22.5,8.5-28,18.6c-5.5-10.1-16-17.2-28-18.6H50l-1.3-0.1c0.1-3.2,0.3-8.7,0.5-11.8c0.2-3.5,0.6-5,0.7-5.2l1.4-3.2
		l-6.5,0.2l-0.6,1.3c-0.6,1.2-0.8,4.2-0.9,6.5c-0.1,1-0.1,2.4-0.2,3.9c-0.2,4.2-0.6,12.8-0.9,14c-0.5,1.4-1.3,3.2-1.6,3.9l-0.1,0.3
		c-0.6,1.4-1.3,4.9-1.3,7.5c0,11.4,7.7,18.7,18.7,18.7c7.3,0,14.4-2.8,18.6-8.5c0.4-0.1,1-0.2,1.6-0.2s1.1,0.1,1.6,0.2
		c4.2,5.7,11.3,8.5,18.6,8.5c11,0,18.7-7.3,18.7-18.7C116.9,76.4,116.2,72.9,115.6,71.5z M57.9,95.4c-10.3,0-16.4-7-16.4-16.5
		c0-2.3,0.6-5.4,1.1-6.6c0.1-0.1,0.1-0.2,0.1-0.3c0.3-0.7,1.1-2.5,1.7-4v-0.1c1.7,1,2.2,3.2,5.3,4.1c1.8,0.6,5.2-1.7,7.4-0.6
		c1.9,0.9,1.9,4.7,3.8,6c1.7,1.2,5.7,0.1,7,1.3c1.7,1.5,0.4,4.9,1.6,6.2c2.2,2.3,4.4,1.2,6.1,2.1c-0.3,0.1-0.4,0.1-0.4,0.1
		C71.6,92.5,65.1,95.4,57.9,95.4z M98.3,95.4c-7.1,0-13.7-2.9-17.3-8.2c0,0-0.2-0.1-0.4-0.1c1.7-0.9,3.9,0.1,6.1-2.1
		c1.2-1.2-0.1-4.7,1.6-6.2c1.4-1.2,5.3-0.1,7-1.3c1.9-1.4,1.9-5.1,3.8-6c2.2-1.1,5.6,1.2,7.4,0.6c3.1-0.9,3.6-3.1,5.3-4.1v0.1
		c0.6,1.5,1.4,3.3,1.7,4c0,0.1,0.1,0.2,0.1,0.3c0.5,1.2,1.1,4.2,1.1,6.6C114.7,88.5,108.5,95.4,98.3,95.4z"/>
</g>
</svg>
